Multiverse Analysis in R
…
The example data

For this example, we are going to use a synthetic data set that includes variables that allow to assess the relationship between media use and well-being:

#Package
library(specr)

# Loading data
d <- read_csv("https://raw.githubusercontent.com/ccs-amsterdam/r-course-material/master/data/pairfam_synth_data.csv")

d %>%
  select(age, gender, depression, 
         self_esteem, sns_use) 

# A tibble: 3,132 × 5
     age gender depression self_esteem sns_use
   <dbl> <chr>       <dbl>       <dbl>   <dbl>
 1    16 female       3.77        4          3
 2    15 female       3.42        4          0
 3    15 female       1           1          3
 4    16 male         4.46        4          0
 5    17 male         2.38        1          5
 6    15 female       1           1          4
 7    16 female       2.04        1         NA
 8    15 male         2.38        1.75       4
 9    15 female       2.04        1.75       3
10    17 male         7.58        6.25       5
# ℹ 3,122 more rows
…
